…
# Ex 1.1. Chains of Functions
x = "a, b, c;d:e-1"
x %>%
  str_replace_all(";", ":") %>%
  str_replace_all(":", ",") %>%
  str_remove("-1") %>%
  str_split(",", simplify = T)

# Ex 1.2. Data Wrangling: loading and formatting
library(readr)
cdata <- read_tsv("clinical_data.tsv")
cdata

#### # A tibble: 12,430 x 9
####    STUDY_ID CASE_ID OS_MONTHS OS_STATUS DFS_STATUS DFS_MONTHS   AGE SEX   GENDER
####    <chr>    <chr>       <dbl> <chr>     <chr>           <dbl> <dbl> <chr> <chr> 
####  1 laml_tc~ TCGA-A~      30.6 DECEASED  Recurred/~       16.1    46 Male  <NA>  
####  2 laml_tc~ TCGA-A~       0   DECEASED  DiseaseFr~        0      61 Fema~ <NA>  
####  3 laml_tc~ TCGA-A~      19   DECEASED  Recurred/~        7.7    23 Male  <NA>  
####  4 laml_tc~ TCGA-A~      11.8 DECEASED  Recurred/~       11.4    59 Fema~ <NA>  
####  5 laml_tc~ TCGA-A~      11.1 DECEASED  Recurred/~        8      51 Fema~ <NA>  
####  6 laml_tc~ TCGA-A~       7.2 DECEASED  Recurred/~        6.7    18 Male  <NA>  
####  7 laml_tc~ TCGA-A~      10.2 DECEASED  Recurred/~        8      40 Male  <NA>  
####  8 laml_tc~ TCGA-A~      73   LIVING    DiseaseFr~       73      75 Male  <NA>  
####  9 laml_tc~ TCGA-A~      18.5 DECEASED  Recurred/~       11.6    77 Male  <NA>  
#### 10 laml_tc~ TCGA-A~       6.3 DECEASED  Recurred/~        4.9    70 Male  <NA>  
#### # ... with 12,420 more rows
…
